[
  {
    "post_id": "14",
    "user_id": "4",
    "post_text": "Четырнадцатый пост",
    "post_image": "https://oir.mobi/uploads/posts/2021-05/1621705443_25-oir_mobi-p-smeshnie-zhivotnie-zimoi-zhivotnie-krasivo-27.jpg",
    "post_date": 1637385600
  },
  {
    "post_id": "12",
    "user_id": "3",
    "post_text": "Двенадцатый пост",
    "post_image": "https://art-assorty.ru/uploads/posts/2017-11/1509700195_4f6e968c04b1a7ddbccb8bb2a7b48a0c.jpg",
    "post_date": 1637203200
  },
  {
    "post_id": "4",
    "user_id": "4",
    "post_text": "Это четвертый пост",
    "post_image": "https://pibig.info/uploads/posts/2022-11/1668717184_46-pibig-info-p-piktures-instagram-46.jpg",
    "post_date": 1636483200
  },
  {
    "post_id": "2",
    "user_id": "2",
    "post_text": "Пример текста поста 2",
    "post_image": "https://mob-os.ru/assets/i/ai/4/3/3/i/2916554.jpg",
    "post_date": 1636147200
  },
  {
    "post_id": "18",
    "user_id": "4",
    "post_text": "Восемнадцатый пост",
    "post_image": "https://i.pinimg.com/originals/17/18/4c/17184c8d1b161302175dc93df0a0ca13.jpg",
    "post_date": 1637779200
  },
  {
    "post_id": "9",
    "user_id": "4",
    "post_text": "Девятый пост",
    "post_image": "https://cs8.pikabu.ru/post_img/big/2016/09/01/4/1472704158112537081.jpg",
    "post_date": 1636982400
  },
  {
    "post_id": "6",
    "user_id": "2",
    "post_text": "Шестой пост",
    "post_image": "https://cdn.fishki.net/upload/post/2016/08/31/2059993/d440660cc6c473eae110788f72e90f88.jpg",
    "post_date": 1636636800
  },
  {
    "post_id": "10",
    "user_id": "5",
    "post_text": "Десятый пост",
    "post_image": "https://pressa.tv/uploads/posts/2021-09/1630571413_pressa_tv_4a.jpg",
    "post_date": 1637078400
  },
  {
    "post_id": "1",
    "user_id": "1",
    "post_text": "Пример текста поста 1",
    "post_image": "https://cdn.fishki.net/upload/post/2016/08/31/2059993/160b69eef4483f1103a5988378d8dc04.jpg",
    "post_date": 1636060800
  },
  {
    "post_id": "7",
    "user_id": "3",
    "post_text": "Седьмой пост",
    "post_image": "https://cdn.fishki.net/upload/post/2016/08/31/2059993/c397d8aaef1a61a75e1db4194fe550ce.jpg",
    "post_date": 1637193600
  },
  {
    "post_id": "3",
    "user_id": "3",
    "post_text": "Пример текста поста 3",
    "post_image": "https://cs12.pikabu.ru/post_img/big/2022/06/14/12/1655237387149475567.jpg",
    "post_date": 1636243200
  },
  {
    "post_id": "13",
    "user_id": "2",
    "post_text": "Тринадцатый пост",
    "post_image": "https://otkrit-ka.ru/uploads/posts/2022-07/foto-i-samye-smeshnye-v-mire-kartinki-4.jpg",
    "post_date": 1637692800
  },
  {
    "post_id": "5",
    "user_id": "5",
    "post_text": "Пятый пост",
    "post_image": "https://cdn.fishki.net/upload/post/2016/08/31/2059993/0539f4c0d4526be0e669adc2b670bc6d.jpg",
    "post_date": 1636579200
  },
  {
    "post_id": "8",
    "user_id": "1",
    "post_text": "Восьмой пост",
    "post_image": "https://cdn.fishki.net/upload/post/2016/08/31/2059993/5c99904c28780ad847f1eb088ba7d748.jpg",
    "post_date": 1636896000
  },
  {
    "post_id": "11",
    "user_id": "1",
    "post_text": "Одиннадцатый пост",
    "post_image": "https://www.amworld.ru/upload/000/u3/c/f/ne-zrja-govorjat-samye-luchshie-fotografii-sluchainye.-images-big.jpg",
    "post_date": 1637217600
  },
  {
    "post_id": "16",
    "user_id": "3",
    "post_text": "Шестнадцатый пост",
    "post_image": "https://i.pinimg.com/1200x/53/73/5f/53735f2316700e5650490b580c3c9565.jpg",
    "post_date": 1637558400
  },
  {
    "post_id": "15",
    "user_id": "5",
    "post_text": "Пятнадцатый пост",
    "post_image": "https://celes.club/uploads/posts/2021-12/thumbs/1640859098_61-celes-club-p-smeshnie-zhivotnie-zimoi-priroda-krasivo-f-65.jpg",
    "post_date": 1637462400
  },
  {
    "post_id": "17",
    "user_id": "1",
    "post_text": "Семнадцатый пост",
    "post_image": "https://static.tildacdn.com/tild3433-3431-4231-b064-386363353066/5.jpg",
    "post_date": 1637664000
  }
]
